^F:\MY DOCUMENTS\VISUAL STUDIO 2010\PROJECTS\QUIKOPENPLUGIN\QUIKOPENPLUGIN\PROPERTIES\RESOURCES.RESX
C:\WINDOWS\ASSEMBLY\PUBPOL3.DAT
C:\WINDOWS\MICROSOFT.NET\ASSEMBLY\GAC_MSIL\MICROSOFT.BUILD.TASKS.V4.0\V4.0_4.0.0.0__B03F5F7F11D50A3A\MICROSOFT.BUILD.TASKS.V4.0.DLL
F:\MY DOCUMENTS\VISUAL STUDIO 2010\PROJECTS\QUIKOPENPLUGIN\QUIKOPENPLUGIN\RESOURCES\FOLDER_OPEN.GIF
